{
  "title": "CadastroPessoa",
  "version": "1.0.0-0",
  "language": "pt-BR",
  "buildOptions": {
    "emitEntryPoint": true,
    "preserveCompilationContext": true,
    "xmlDoc": false
  },
  "dependencies": {
    "Microsoft.NETCore.App": {
      "version": "1.0.0",
      "type": "platform"
    },
    "Microsoft.AspNetCore.Diagnostics": "1.0.0",
    "Microsoft.AspNetCore.Mvc": "1.0.0",
    "Microsoft.AspNetCore.Razor.Tools": {
      "version": "1.0.0-preview2-final",
      "type": "build"
    },
    "Microsoft.AspNetCore.Server.IISIntegration": "1.0.0",
    "Microsoft.AspNetCore.Server.Kestrel": "1.0.0",
    "Microsoft.AspNetCore.StaticFiles": "1.0.0",
    "Microsoft.Extensions.Configuration.EnvironmentVariables": "1.0.0",
    "Microsoft.Extensions.Configuration.Json": "1.0.0",
    "Microsoft.Extensions.Configuration.CommandLine": "1.0.0",
    "Microsoft.Extensions.Logging": "1.0.0",
    "Microsoft.Extensions.Logging.Console": "1.0.0",
    "Microsoft.Extensions.Logging.Debug": "1.0.0",
    "Microsoft.EntityFrameworkCore.SQLite": "1.0.0",
    "Microsoft.EntityFrameworkCore.Design": {
      "version": "1.0.0-preview2-final",
      "type": "build"
    },
    "Microsoft.Extensions.Options.ConfigurationExtensions": "1.0.0"
  },
  "frameworks": {
    "netcoreapp1.0": {
      "imports": [
        "dotnet5.6",
        "portable-net45+win8"
      ]
    }
  },
  "publishOptions": {
    "include": [
      "wwwroot",
      "Views",
      "Areas/**/Views",
      "appsettings.json",
      "web.config"
    ]
  },
  "runtimeOptions": {
    "configProperties": {
      "System.GC.Server": true
    }
  },
  "scripts": {
    "precompile": [
      "dotnet bundle"
    ],
    "prepublish": [
      "bower install"
    ],
    "postpublish": [
      "dotnet publish-iis --publish-folder %publish:OutputPath% --framework %publish:FullTargetFramework%"
    ]
  },
  "tooling": {
    "defaultNamespace": "CadastroPessoa"
  },
  "tools": {
    "BundlerMinifier.Core": "2.0.238",
    "Microsoft.AspNetCore.Razor.Tools": "1.0.0-preview2-final",
    "Microsoft.AspNetCore.Server.IISIntegration.Tools": "1.0.0-preview2-final",
    "Microsoft.EntityFrameworkCore.Tools": "1.0.0-preview2-final"
  }
}